Data table and more
…
Lightning speed

Lets first preview our .csv file relatively read as data.table, tibble and data.frame. This dataset has 1 million rows with 6 columns which sampled as characters, integers and double.

##          sample1      sample2 sample3 sample4 sample5 sample6
##       1:   id027 id0000001402      62    4027       2 53.4276
##       2:   id038 id0000006957      33    9190       3 52.0274
##       3:   id058 id0000007289      21    7011       4  4.4083
##      ---                                                     
##  999998:   id081 id0000002287      37    4665       4 10.8610
##  999999:   id070 id0000007561      55    2626       3 98.9201
## 1000000:   id061 id0000003997      16     148       1 21.9067

## # A tibble: 1,000,000 x 6
##   sample1 sample2      sample3 sample4 sample5 sample6
##   <chr>   <chr>          <dbl>   <dbl>   <dbl>   <dbl>
## 1 id027   id0000001402      62    4027       2   53.4 
## 2 id038   id0000006957      33    9190       3   52.0 
## 3 id058   id0000007289      21    7011       4    4.41
## 4 id091   id0000000917      84    8531       2   37.2 
## 5 id021   id0000000667      15    7745       5    1.70
## #  with 1e+06 more rows

##   sample1      sample2 sample3 sample4 sample5 sample6
## 1   id027 id0000001402      62    4027       2 53.4276
## 2   id038 id0000006957      33    9190       3 52.0274
## 3   id058 id0000007289      21    7011       4  4.4083
## 4   id091 id0000000917      84    8531       2 37.1531
## 5   id021 id0000000667      15    7745       5  1.7010
##  [ reached 'max' / getOption("max.print") -- omitted 999995 rows ]
…
